// Jest Snapshot v1, https://goo.gl/fbAQLP

exports[`UserAvatar 1`] = `
<img
  alt=""
  className="Avatar-sc-qwiu3k-0 kmDCyr  user-avatar"
  onError={[Function]}
  src="http://localhost:3000/image/image.png"
  title="CDN Avatar"
/>
`;

exports[`UserAvatar with no alt property specified 1`] = `
<img
  alt=""
  className="Avatar-sc-qwiu3k-0 kmDCyr  user-avatar"
  onError={[Function]}
  src="http://localhost:3000/image/image.png"
  title="User's Avatar"
/>
`;
